Version 4
SHEET 1 880 680
WIRE 64 32 16 32
WIRE 176 32 128 32
WIRE -128 112 -256 112
WIRE 16 112 16 32
WIRE 16 112 -48 112
WIRE 176 112 176 32
WIRE 288 112 176 112
WIRE 16 208 16 112
WIRE 64 208 16 208
WIRE 176 208 176 112
WIRE 176 208 128 208
WIRE -256 224 -256 112
WIRE -256 368 -256 304
WIRE 96 368 -256 368
WIRE 288 368 288 112
WIRE 288 368 96 368
WIRE 96 416 96 368
FLAG 96 416 0
FLAG -256 112 L293D_Output_1
FLAG 288 112 L293D_Output_2
SYMBOL LED 128 16 R90
WINDOW 0 0 32 VBottom 2
WINDOW 3 72 32 VTop 2
SYMATTR InstName D1
SYMBOL LED 64 224 R270
WINDOW 0 72 32 VTop 2
WINDOW 3 0 32 VBottom 2
SYMATTR InstName D2
SYMBOL voltage -256 208 R0
WINDOW 123 0 0 Left 0
WINDOW 39 0 0 Left 0
SYMATTR InstName V1
SYMATTR Value 9
SYMBOL res -32 96 R90
WINDOW 0 0 56 VBottom 2
WINDOW 3 32 56 VTop 2
SYMATTR InstName R1
SYMATTR Value 1k
TEXT -96 440 Left 2 !.dc V1 0 9 0.01
