EESchema Schematic File Version 4
EELAYER 30 0
EELAYER END
$Descr A4 11693 8268
encoding utf-8
Sheet 1 1
Title ""
Date ""
Rev ""
Comp ""
Comment1 ""
Comment2 ""
Comment3 ""
Comment4 ""
$EndDescr
$Comp
L pspice:CAP C1
U 1 1 6099C6B7
P 3300 1850
F 0 "C1" V 3500 1900 50  0000 L CNN
F 1 "0.1uF" V 3500 1650 50  0000 L CNN
F 2 "" H 3300 1850 50  0001 C CNN
F 3 "~" H 3300 1850 50  0001 C CNN
	1    3300 1850
	0    -1   -1   0   
$EndComp
Wire Wire Line
	3050 1850 2750 1850
Wire Wire Line
	2750 1850 2750 2050
Wire Wire Line
	3550 1850 3750 1850
Wire Wire Line
	3750 1850 3750 2150
Text Label 3100 2100 0    50   ~ 0
DecouplingCap
Wire Wire Line
	3650 4050 3650 4250
Wire Wire Line
	3650 4250 3750 4250
Wire Wire Line
	4050 4050 4050 4250
Wire Wire Line
	4050 4250 3950 4250
Wire Wire Line
	3750 4050 3750 4250
Connection ~ 3750 4250
Wire Wire Line
	3950 4050 3950 4250
Connection ~ 3950 4250
$Comp
L Driver_Motor:L293D U1
U 1 1 607840DB
P 3850 3250
F 0 "U1" H 4200 4200 50  0000 C CNN
F 1 "L293D" H 3550 4200 50  0000 C CNN
F 2 "Package_DIP:DIP-16_W7.62mm" H 4100 2500 50  0001 L CNN
F 3 "http://www.ti.com/lit/ds/symlink/l293.pdf" H 3550 3950 50  0001 C CNN
	1    3850 3250
	1    0    0    -1  
$EndComp
$Comp
L Motor:Motor_DC M1
U 1 1 609B1ADE
P 5250 2700
F 0 "M1" H 5408 2696 50  0000 L CNN
F 1 "MOTOR_DC" H 5408 2605 50  0000 L CNN
F 2 "" H 5250 2610 50  0001 C CNN
F 3 "~" H 5250 2610 50  0001 C CNN
	1    5250 2700
	1    0    0    -1  
$EndComp
Wire Wire Line
	4350 2650 4350 2400
Wire Wire Line
	5250 2400 5250 2500
Wire Wire Line
	4350 2850 4350 3100
Wire Wire Line
	5250 3100 5250 3000
NoConn ~ 3350 3650
NoConn ~ 3350 3450
NoConn ~ 3350 3250
NoConn ~ 4350 3250
NoConn ~ 4350 3450
Wire Wire Line
	3750 4250 3850 4250
Connection ~ 3850 4250
Wire Wire Line
	3850 4250 3950 4250
$Comp
L power:GND #PWR05
U 1 1 609C957B
P 2750 2050
F 0 "#PWR05" H 2750 1800 50  0001 C CNN
F 1 "GND" H 2755 1877 50  0000 C CNN
F 2 "" H 2750 2050 50  0001 C CNN
F 3 "" H 2750 2050 50  0001 C CNN
	1    2750 2050
	1    0    0    -1  
$EndComp
$Comp
L pspice:0 #GND02
U 1 1 609CDCBC
P 3850 4350
F 0 "#GND02" H 3850 4250 50  0001 C CNN
F 1 "0" H 3850 4250 50  0000 C CNN
F 2 "" H 3850 4350 50  0001 C CNN
F 3 "~" H 3850 4350 50  0001 C CNN
	1    3850 4350
	1    0    0    -1  
$EndComp
Wire Wire Line
	3850 4250 3850 4350
Wire Wire Line
	3750 2150 3200 2150
Wire Wire Line
	3200 2150 3200 3050
Wire Wire Line
	3200 3050 3350 3050
Connection ~ 3750 2150
Wire Wire Line
	3750 2150 3750 2250
Wire Wire Line
	3350 2650 2950 2650
$Comp
L power:+3.3V #PWR?
U 1 1 60C6159B
P 2950 2650
F 0 "#PWR?" H 2950 2500 50  0001 C CNN
F 1 "+3.3V" H 2965 2823 50  0000 C CNN
F 2 "" H 2950 2650 50  0001 C CNN
F 3 "" H 2950 2650 50  0001 C CNN
	1    2950 2650
	1    0    0    -1  
$EndComp
$Comp
L power:+3.3V #PWR?
U 1 1 60C61FF7
P 2750 2850
F 0 "#PWR?" H 2750 2700 50  0001 C CNN
F 1 "+3.3V" H 2750 3000 50  0000 C CNN
F 2 "" H 2750 2850 50  0001 C CNN
F 3 "" H 2750 2850 50  0001 C CNN
	1    2750 2850
	1    0    0    -1  
$EndComp
Wire Wire Line
	2750 2850 3350 2850
$Comp
L power:+5V #PWR?
U 1 1 60C6B176
P 3750 1500
F 0 "#PWR?" H 3750 1350 50  0001 C CNN
F 1 "+5V" H 3765 1673 50  0000 C CNN
F 2 "" H 3750 1500 50  0001 C CNN
F 3 "" H 3750 1500 50  0001 C CNN
	1    3750 1500
	1    0    0    -1  
$EndComp
Wire Wire Line
	3750 1500 3750 1850
Connection ~ 3750 1850
$Comp
L power:+9V #PWR?
U 1 1 60C6EBEE
P 3950 1500
F 0 "#PWR?" H 3950 1350 50  0001 C CNN
F 1 "+9V" H 3965 1673 50  0000 C CNN
F 2 "" H 3950 1500 50  0001 C CNN
F 3 "" H 3950 1500 50  0001 C CNN
	1    3950 1500
	1    0    0    -1  
$EndComp
Wire Wire Line
	3950 2250 3950 1500
Wire Wire Line
	4350 2400 5250 2400
Wire Wire Line
	4350 3100 5250 3100
$EndSCHEMATC
