EESchema Schematic File Version 4
EELAYER 30 0
EELAYER END
$Descr A4 11693 8268
encoding utf-8
Sheet 1 1
Title ""
Date ""
Rev ""
Comp ""
Comment1 ""
Comment2 ""
Comment3 ""
Comment4 ""
$EndDescr
$Comp
L pspice:CAP C1
U 1 1 6099C6B7
P 8750 1400
F 0 "C1" V 8950 1450 50  0000 L CNN
F 1 "0.1uF" V 8950 1200 50  0000 L CNN
F 2 "Capacitor_SMD:CP_Elec_4x3" H 8750 1400 50  0001 C CNN
F 3 "~" H 8750 1400 50  0001 C CNN
	1    8750 1400
	0    -1   -1   0   
$EndComp
Wire Wire Line
	8500 1400 8200 1400
Wire Wire Line
	8200 1400 8200 1600
Wire Wire Line
	9000 1400 9200 1400
Wire Wire Line
	9200 1400 9200 1700
Text Label 8550 1650 0    50   ~ 0
DecouplingCap
Wire Wire Line
	9100 3600 9100 3800
Wire Wire Line
	9100 3800 9200 3800
Wire Wire Line
	9500 3600 9500 3800
Wire Wire Line
	9500 3800 9400 3800
Wire Wire Line
	9200 3600 9200 3800
Connection ~ 9200 3800
Wire Wire Line
	9400 3600 9400 3800
Connection ~ 9400 3800
$Comp
L Driver_Motor:L293D U1
U 1 1 607840DB
P 9300 2800
F 0 "U1" H 9650 3750 50  0000 C CNN
F 1 "L293D" H 9000 3750 50  0000 C CNN
F 2 "Package_DIP:DIP-16_W7.62mm" H 9550 2050 50  0001 L CNN
F 3 "http://www.ti.com/lit/ds/symlink/l293.pdf" H 9000 3500 50  0001 C CNN
	1    9300 2800
	1    0    0    -1  
$EndComp
$Comp
L Motor:Motor_DC M1
U 1 1 609B1ADE
P 8700 4500
F 0 "M1" H 8858 4496 50  0000 L CNN
F 1 "MOTOR_DC" H 8858 4405 50  0000 L CNN
F 2 "" H 8700 4410 50  0001 C CNN
F 3 "~" H 8700 4410 50  0001 C CNN
	1    8700 4500
	1    0    0    -1  
$EndComp
NoConn ~ 8800 3200
NoConn ~ 8800 3000
NoConn ~ 8800 2800
NoConn ~ 9800 2800
NoConn ~ 9800 3000
Wire Wire Line
	9200 3800 9300 3800
Connection ~ 9300 3800
Wire Wire Line
	9300 3800 9400 3800
Wire Wire Line
	9300 3800 9300 3900
Wire Wire Line
	9200 1700 8650 1700
Wire Wire Line
	8650 1700 8650 2600
Wire Wire Line
	8650 2600 8800 2600
Connection ~ 9200 1700
Wire Wire Line
	9200 1700 9200 1800
$Comp
L raspberrypi_zerow_uhat-cache:Connector_Generic_Conn_02x20_Odd_Even J3
U 1 1 60B9FBDC
P 2650 2300
F 0 "J3" H 2700 3417 50  0000 C CNN
F 1 "GPIO_CONNECTOR" H 2700 3326 50  0000 C CNN
F 2 "lib:PinSocket_2x20_P2.54mm_Vertical_Centered_Anchor" H 2650 2300 50  0001 C CNN
F 3 "" H 2650 2300 50  0001 C CNN
	1    2650 2300
	1    0    0    -1  
$EndComp
Wire Wire Line
	3200 1400 3200 1300
Wire Wire Line
	2950 1500 3200 1500
Wire Wire Line
	3200 1500 3200 1400
Connection ~ 3200 1400
Wire Wire Line
	2450 1400 2250 1400
Wire Wire Line
	2250 1400 2250 1250
Connection ~ 2250 1400
Wire Wire Line
	2450 1600 2050 1600
Wire Wire Line
	2450 1700 2050 1700
Wire Wire Line
	2450 1800 2350 1800
Wire Wire Line
	2350 1800 2350 2600
Wire Wire Line
	2350 2600 2450 2600
Wire Wire Line
	2350 3300 2350 2600
Connection ~ 2350 2600
Wire Wire Line
	2350 3300 2450 3300
Wire Wire Line
	2450 1900 2050 1900
Wire Wire Line
	2450 2100 2050 2100
Wire Wire Line
	2450 2300 2050 2300
Wire Wire Line
	2450 2400 2050 2400
Wire Wire Line
	2450 2500 2050 2500
Wire Wire Line
	2450 2700 2050 2700
Wire Wire Line
	2450 2800 2050 2800
Wire Wire Line
	2450 2900 2050 2900
Wire Wire Line
	2450 3000 2050 3000
Wire Wire Line
	2450 3100 2050 3100
Wire Wire Line
	2450 3200 2050 3200
Wire Wire Line
	2950 1600 3050 1600
Wire Wire Line
	3050 1600 3050 2000
Wire Wire Line
	3050 2000 2950 2000
Wire Wire Line
	3050 2000 3050 2300
Wire Wire Line
	3050 2300 2950 2300
Connection ~ 3050 2000
Wire Wire Line
	3050 2300 3050 2800
Wire Wire Line
	3050 2800 2950 2800
Connection ~ 3050 2300
Wire Wire Line
	3050 2800 3050 3000
Wire Wire Line
	3050 3000 2950 3000
Connection ~ 3050 2800
Wire Wire Line
	3050 3000 3050 3500
Connection ~ 3050 3000
Connection ~ 2350 3300
Wire Wire Line
	2950 3300 3150 3300
Wire Wire Line
	2950 3200 3150 3200
Wire Wire Line
	2950 3100 3150 3100
Wire Wire Line
	2950 2900 3150 2900
Wire Wire Line
	2950 2700 3150 2700
Wire Wire Line
	2950 2600 3150 2600
Wire Wire Line
	2950 2500 3150 2500
Wire Wire Line
	2950 2400 3150 2400
Wire Wire Line
	2950 2200 3150 2200
Wire Wire Line
	2950 2100 3150 2100
Wire Wire Line
	2950 1900 3150 1900
Wire Wire Line
	2950 1800 3150 1800
Wire Wire Line
	2950 1700 3150 1700
NoConn ~ 3150 1700
NoConn ~ 3150 1800
NoConn ~ 3150 1900
NoConn ~ 3150 2100
NoConn ~ 3150 2200
NoConn ~ 3150 2400
NoConn ~ 3150 2500
NoConn ~ 3150 2600
NoConn ~ 3150 2700
NoConn ~ 3150 2900
NoConn ~ 3150 3100
NoConn ~ 3150 3200
NoConn ~ 3150 3300
Wire Wire Line
	2450 2200 2250 2200
Wire Wire Line
	2450 1500 2050 1500
NoConn ~ 2050 1500
NoConn ~ 2050 1600
NoConn ~ 2050 1700
NoConn ~ 2050 2300
NoConn ~ 2050 2400
NoConn ~ 2050 2500
NoConn ~ 2050 2700
NoConn ~ 2050 2800
NoConn ~ 2050 2900
NoConn ~ 2050 3000
NoConn ~ 2050 3100
NoConn ~ 2050 3200
$Comp
L power:+3.3V #PWR01
U 1 1 60C4B346
P 2250 1250
F 0 "#PWR01" H 2250 1100 50  0001 C CNN
F 1 "+3.3V" H 2265 1423 50  0000 C CNN
F 2 "" H 2250 1250 50  0001 C CNN
F 3 "" H 2250 1250 50  0001 C CNN
	1    2250 1250
	1    0    0    -1  
$EndComp
$Comp
L power:+5V #PWR06
U 1 1 60C4C41B
P 3200 1300
F 0 "#PWR06" H 3200 1150 50  0001 C CNN
F 1 "+5V" H 3215 1473 50  0000 C CNN
F 2 "" H 3200 1300 50  0001 C CNN
F 3 "" H 3200 1300 50  0001 C CNN
	1    3200 1300
	1    0    0    -1  
$EndComp
$Comp
L power:+3.3V #PWR09
U 1 1 60C6159B
P 8150 2050
F 0 "#PWR09" H 8150 1900 50  0001 C CNN
F 1 "+3.3V" H 8165 2223 50  0000 C CNN
F 2 "" H 8150 2050 50  0001 C CNN
F 3 "" H 8150 2050 50  0001 C CNN
	1    8150 2050
	1    0    0    -1  
$EndComp
$Comp
L power:+3.3V #PWR08
U 1 1 60C61FF7
P 7800 2200
F 0 "#PWR08" H 7800 2050 50  0001 C CNN
F 1 "+3.3V" H 7800 2350 50  0000 C CNN
F 2 "" H 7800 2200 50  0001 C CNN
F 3 "" H 7800 2200 50  0001 C CNN
	1    7800 2200
	1    0    0    -1  
$EndComp
$Comp
L power:+5V #PWR010
U 1 1 60C6B176
P 9200 1050
F 0 "#PWR010" H 9200 900 50  0001 C CNN
F 1 "+5V" H 9215 1223 50  0000 C CNN
F 2 "" H 9200 1050 50  0001 C CNN
F 3 "" H 9200 1050 50  0001 C CNN
	1    9200 1050
	1    0    0    -1  
$EndComp
Wire Wire Line
	9200 1050 9200 1400
Connection ~ 9200 1400
$Comp
L power:+9V #PWR011
U 1 1 60C6EBEE
P 9400 1050
F 0 "#PWR011" H 9400 900 50  0001 C CNN
F 1 "+9V" H 9415 1223 50  0000 C CNN
F 2 "" H 9400 1050 50  0001 C CNN
F 3 "" H 9400 1050 50  0001 C CNN
	1    9400 1050
	1    0    0    -1  
$EndComp
Wire Wire Line
	4000 5350 4000 5200
Wire Wire Line
	4000 5200 3800 5200
Wire Wire Line
	3800 5500 3800 5800
$Comp
L Device:R_Small_US R3
U 1 1 60BB5FB3
P 8450 2200
F 0 "R3" V 8245 2200 50  0000 C CNN
F 1 "1k" V 8336 2200 50  0000 C CNN
F 2 "Resistor_SMD:R_0805_2012Metric" H 8450 2200 50  0001 C CNN
F 3 "~" H 8450 2200 50  0001 C CNN
	1    8450 2200
	0    1    1    0   
$EndComp
$Comp
L Device:R_Small_US R2
U 1 1 60BB97B7
P 8100 2400
F 0 "R2" V 7895 2400 50  0000 C CNN
F 1 "1k" V 7986 2400 50  0000 C CNN
F 2 "Resistor_SMD:R_0805_2012Metric" H 8100 2400 50  0001 C CNN
F 3 "~" H 8100 2400 50  0001 C CNN
	1    8100 2400
	0    1    1    0   
$EndComp
Wire Wire Line
	8150 2050 8150 2200
Wire Wire Line
	8150 2200 8350 2200
Wire Wire Line
	8550 2200 8800 2200
Wire Wire Line
	7800 2200 7800 2400
Wire Wire Line
	7800 2400 8000 2400
Wire Wire Line
	8200 2400 8800 2400
Wire Wire Line
	2950 1400 3200 1400
$Comp
L Device:R_Small_US R1
U 1 1 60BF859D
P 2600 6550
F 0 "R1" V 2395 6550 50  0000 C CNN
F 1 "1k" V 2486 6550 50  0000 C CNN
F 2 "Resistor_SMD:R_0805_2012Metric" H 2600 6550 50  0001 C CNN
F 3 "~" H 2600 6550 50  0001 C CNN
	1    2600 6550
	0    1    1    0   
$EndComp
$Comp
L Device:LED D1
U 1 1 60BFA3FF
P 3450 6300
F 0 "D1" H 3443 6517 50  0000 C CNN
F 1 "LED" H 3443 6426 50  0000 C CNN
F 2 "LED_SMD:LED_1206_3216Metric" H 3450 6300 50  0001 C CNN
F 3 "~" H 3450 6300 50  0001 C CNN
	1    3450 6300
	1    0    0    -1  
$EndComp
$Comp
L Device:LED D2
U 1 1 60BFB986
P 3450 6800
F 0 "D2" H 3443 7017 50  0000 C CNN
F 1 "LED" H 3443 6926 50  0000 C CNN
F 2 "LED_SMD:LED_1206_3216Metric" H 3450 6800 50  0001 C CNN
F 3 "~" H 3450 6800 50  0001 C CNN
	1    3450 6800
	-1   0    0    1   
$EndComp
Wire Wire Line
	2050 6850 2400 6850
Wire Wire Line
	2400 6850 2400 6550
Wire Wire Line
	2400 6550 2500 6550
Wire Wire Line
	2700 6550 3150 6550
Wire Wire Line
	3150 6550 3150 6300
Wire Wire Line
	3150 6300 3300 6300
Wire Wire Line
	3600 6300 3850 6300
Wire Wire Line
	3850 6300 3850 6550
Wire Wire Line
	3600 6800 3850 6800
Wire Wire Line
	3300 6800 3150 6800
Wire Wire Line
	3150 6800 3150 6550
Connection ~ 3150 6550
Wire Wire Line
	3850 6550 4100 6550
Wire Wire Line
	4100 6550 4100 7100
Wire Wire Line
	2400 7100 2400 6850
Connection ~ 3850 6550
Wire Wire Line
	3850 6550 3850 6800
Connection ~ 2400 6850
Wire Wire Line
	2800 7250 2800 7100
Wire Wire Line
	2400 7100 2800 7100
Connection ~ 2800 7100
Wire Wire Line
	2800 7100 4100 7100
Text Notes 7000 6650 0    50   ~ 10
Matthew January - JNRMAT002
Text Notes 7000 6750 0    50   ~ 10
Abu Bakr Asmal - ASMABU002
Text Notes 7000 6850 0    50   ~ 10
Aadil Eyasim - EYSMUH002
Text Notes 7350 7500 0    50   ~ 10
Final PCB Schematic for Motor+Hall Effect Sensor PiHAT for RPi Zero
Text Notes 8100 7650 0    50   ~ 10
04/06/2021
$Comp
L Mechanical:MountingHole H1
U 1 1 60C38EE5
P 4100 1650
F 0 "H1" H 4200 1696 50  0000 L CNN
F 1 "MountingHole" H 4200 1605 50  0000 L CNN
F 2 "MountingHole:MountingHole_3.2mm_M3_ISO7380_Pad_TopBottom" H 4100 1650 50  0001 C CNN
F 3 "~" H 4100 1650 50  0001 C CNN
	1    4100 1650
	1    0    0    -1  
$EndComp
$Comp
L Mechanical:MountingHole H2
U 1 1 60C39A9D
P 4100 1900
F 0 "H2" H 4200 1946 50  0000 L CNN
F 1 "MountingHole" H 4200 1855 50  0000 L CNN
F 2 "MountingHole:MountingHole_3.2mm_M3_ISO7380_Pad_TopBottom" H 4100 1900 50  0001 C CNN
F 3 "~" H 4100 1900 50  0001 C CNN
	1    4100 1900
	1    0    0    -1  
$EndComp
$Comp
L Mechanical:MountingHole H3
U 1 1 60C3D850
P 4100 2150
F 0 "H3" H 4200 2196 50  0000 L CNN
F 1 "MountingHole" H 4200 2105 50  0000 L CNN
F 2 "MountingHole:MountingHole_3.2mm_M3_ISO7380_Pad_TopBottom" H 4100 2150 50  0001 C CNN
F 3 "~" H 4100 2150 50  0001 C CNN
	1    4100 2150
	1    0    0    -1  
$EndComp
$Comp
L Mechanical:MountingHole H4
U 1 1 60C3D856
P 4100 2400
F 0 "H4" H 4200 2446 50  0000 L CNN
F 1 "MountingHole" H 4200 2355 50  0000 L CNN
F 2 "MountingHole:MountingHole_3.2mm_M3_ISO7380_Pad_TopBottom" H 4100 2400 50  0001 C CNN
F 3 "~" H 4100 2400 50  0001 C CNN
	1    4100 2400
	1    0    0    -1  
$EndComp
Text GLabel 2050 1900 0    50   Input ~ 10
Hall_Effect_Sensor_Output
Text GLabel 3800 5800 0    50   Input ~ 10
Hall_Effect_Sensor_Output
Text GLabel 2050 6850 0    50   Input ~ 10
LED_Input
Wire Wire Line
	9400 1050 9400 1800
Wire Wire Line
	2350 3300 2350 3500
$Comp
L power:GND #PWR02
U 1 1 60C646D1
P 2350 3500
F 0 "#PWR02" H 2350 3250 50  0001 C CNN
F 1 "GND" H 2355 3327 50  0000 C CNN
F 2 "" H 2350 3500 50  0001 C CNN
F 3 "" H 2350 3500 50  0001 C CNN
	1    2350 3500
	1    0    0    -1  
$EndComp
$Comp
L power:GND #PWR03
U 1 1 60C65147
P 3050 3500
F 0 "#PWR03" H 3050 3250 50  0001 C CNN
F 1 "GND" H 3055 3327 50  0000 C CNN
F 2 "" H 3050 3500 50  0001 C CNN
F 3 "" H 3050 3500 50  0001 C CNN
	1    3050 3500
	1    0    0    -1  
$EndComp
$Comp
L power:GND #PWR07
U 1 1 60C658E2
P 9300 3900
F 0 "#PWR07" H 9300 3650 50  0001 C CNN
F 1 "GND" H 9305 3727 50  0000 C CNN
F 2 "" H 9300 3900 50  0001 C CNN
F 3 "" H 9300 3900 50  0001 C CNN
	1    9300 3900
	1    0    0    -1  
$EndComp
$Comp
L power:GND #PWR05
U 1 1 60C65D7A
P 8200 1600
F 0 "#PWR05" H 8200 1350 50  0001 C CNN
F 1 "GND" H 8205 1427 50  0000 C CNN
F 2 "" H 8200 1600 50  0001 C CNN
F 3 "" H 8200 1600 50  0001 C CNN
	1    8200 1600
	1    0    0    -1  
$EndComp
$Comp
L power:GND #PWR012
U 1 1 60C6636E
P 4000 5350
F 0 "#PWR012" H 4000 5100 50  0001 C CNN
F 1 "GND" H 4005 5177 50  0000 C CNN
F 2 "" H 4000 5350 50  0001 C CNN
F 3 "" H 4000 5350 50  0001 C CNN
	1    4000 5350
	1    0    0    -1  
$EndComp
$Comp
L power:GND #PWR04
U 1 1 60C6677A
P 2800 7250
F 0 "#PWR04" H 2800 7000 50  0001 C CNN
F 1 "GND" H 2805 7077 50  0000 C CNN
F 2 "" H 2800 7250 50  0001 C CNN
F 3 "" H 2800 7250 50  0001 C CNN
	1    2800 7250
	1    0    0    -1  
$EndComp
$Comp
L power:GND #PWR013
U 1 1 60C67923
P 4000 3400
F 0 "#PWR013" H 4000 3150 50  0001 C CNN
F 1 "GND" H 4005 3227 50  0000 C CNN
F 2 "" H 4000 3400 50  0001 C CNN
F 3 "" H 4000 3400 50  0001 C CNN
	1    4000 3400
	1    0    0    -1  
$EndComp
$Comp
L power:PWR_FLAG #FLG01
U 1 1 60C680E9
P 4000 3300
F 0 "#FLG01" H 4000 3375 50  0001 C CNN
F 1 "PWR_FLAG" H 4000 3473 50  0000 C CNN
F 2 "" H 4000 3300 50  0001 C CNN
F 3 "~" H 4000 3300 50  0001 C CNN
	1    4000 3300
	1    0    0    -1  
$EndComp
Wire Wire Line
	4000 3400 4000 3350
Text GLabel 9800 2200 2    50   Input ~ 10
Motor_Input_1
Text GLabel 9800 2400 2    50   Input ~ 10
Motor_Input_2
Text GLabel 8700 4300 1    50   Input ~ 10
Motor_Input_1
Text GLabel 8700 4800 3    50   Input ~ 10
Motor_Input_2
Text GLabel 2200 5500 0    50   Input ~ 10
Motor_Input_1
$Comp
L Connector:Conn_01x02_Male J1
U 1 1 60C6F565
P 9500 4550
F 0 "J1" H 9608 4731 50  0000 C CNN
F 1 "Conn_01x02_Male" H 9608 4640 50  0000 C CNN
F 2 "Connector:JWT_A3963_1x02_P3.96mm_Vertical" H 9500 4550 50  0001 C CNN
F 3 "~" H 9500 4550 50  0001 C CNN
	1    9500 4550
	1    0    0    -1  
$EndComp
Text GLabel 9700 4550 2    50   Input ~ 10
Motor_Input_1
Text GLabel 9700 4650 2    50   Input ~ 10
Motor_Input_2
$Comp
L 2021-06-03_12-01-14:DRV5013ADQDBZR U2
U 1 1 60B90894
P 3000 5400
F 0 "U2" H 3000 4912 60  0000 C CNN
F 1 "DRV5013ADQDBZR" H 3000 5018 60  0000 C CNN
F 2 "footprints:DRV5013ADQDBZR" H 3000 5340 60  0001 C CNN
F 3 "" H 3000 5400 60  0000 C CNN
	1    3000 5400
	1    0    0    1   
$EndComp
Text GLabel 4250 3350 2    50   Input ~ 10
GND
Wire Wire Line
	4000 3350 4250 3350
Connection ~ 4000 3350
Wire Wire Line
	4000 3350 4000 3300
Text GLabel 3050 3450 2    50   Input ~ 10
GND
Text GLabel 2350 3450 2    50   Input ~ 10
GND
Text GLabel 4000 5200 2    50   Input ~ 10
GND
Text GLabel 2800 7200 2    50   Input ~ 10
GND
Text GLabel 9300 3900 2    50   Input ~ 10
GND
Wire Wire Line
	2250 2200 2250 1400
Wire Wire Line
	2450 2000 2050 2000
NoConn ~ 2050 2100
Text GLabel 2050 2000 0    50   Input ~ 10
LED_Input
$EndSCHEMATC
