(export (version D)
  (design
    (source "C:\\Users\\27837\\OneDrive\\Documents\\UCT\\Third Year\\EEE3088F\\Assignment3\\Assignment3_FINAL_PiHAT.sch")
    (date "2021/06/04 18:23:09")
    (tool "Eeschema (5.1.9)-1")
    (sheet (number 1) (name /) (tstamps /)
      (title_block
        (title)
        (company)
        (rev)
        (date)
        (source Assignment3_FINAL_PiHAT.sch)
        (comment (number 1) (value ""))
        (comment (number 2) (value ""))
        (comment (number 3) (value ""))
        (comment (number 4) (value "")))))
  (components
    (comp (ref C1)
      (value 0.1uF)
      (footprint Capacitor_SMD:CP_Elec_4x3)
      (datasheet ~)
      (libsource (lib pspice) (part CAP) (description "Capacitor symbol for simulation only"))
      (sheetpath (names /) (tstamps /))
      (tstamp 6099C6B7))
    (comp (ref U1)
      (value L293D)
      (footprint Package_DIP:DIP-16_W7.62mm)
      (datasheet http://www.ti.com/lit/ds/symlink/l293.pdf)
      (libsource (lib Driver_Motor) (part L293D) (description "Quadruple Half-H Drivers"))
      (sheetpath (names /) (tstamps /))
      (tstamp 607840DB))
    (comp (ref M1)
      (value MOTOR_DC)
      (datasheet ~)
      (libsource (lib Motor) (part Motor_DC) (description "DC Motor"))
      (sheetpath (names /) (tstamps /))
      (tstamp 609B1ADE))
    (comp (ref J3)
      (value GPIO_CONNECTOR)
      (footprint lib:PinSocket_2x20_P2.54mm_Vertical_Centered_Anchor)
      (libsource (lib raspberrypi_zerow_uhat-cache) (part Connector_Generic_Conn_02x20_Odd_Even) (description ""))
      (sheetpath (names /) (tstamps /))
      (tstamp 60B9FBDC))
    (comp (ref R3)
      (value 1k)
      (footprint Resistor_SMD:R_0805_2012Metric)
      (datasheet ~)
      (libsource (lib Device) (part R_Small_US) (description "Resistor, small US symbol"))
      (sheetpath (names /) (tstamps /))
      (tstamp 60BB5FB3))
    (comp (ref R2)
      (value 1k)
      (footprint Resistor_SMD:R_0805_2012Metric)
      (datasheet ~)
      (libsource (lib Device) (part R_Small_US) (description "Resistor, small US symbol"))
      (sheetpath (names /) (tstamps /))
      (tstamp 60BB97B7))
    (comp (ref R1)
      (value 1k)
      (footprint Resistor_SMD:R_0805_2012Metric)
      (datasheet ~)
      (libsource (lib Device) (part R_Small_US) (description "Resistor, small US symbol"))
      (sheetpath (names /) (tstamps /))
      (tstamp 60BF859D))
    (comp (ref D1)
      (value LED)
      (footprint LED_SMD:LED_1206_3216Metric)
      (datasheet ~)
      (libsource (lib Device) (part LED) (description "Light emitting diode"))
      (sheetpath (names /) (tstamps /))
      (tstamp 60BFA3FF))
    (comp (ref D2)
      (value LED)
      (footprint LED_SMD:LED_1206_3216Metric)
      (datasheet ~)
      (libsource (lib Device) (part LED) (description "Light emitting diode"))
      (sheetpath (names /) (tstamps /))
      (tstamp 60BFB986))
    (comp (ref H1)
      (value MountingHole)
      (footprint MountingHole:MountingHole_3.2mm_M3_ISO7380_Pad_TopBottom)
      (datasheet ~)
      (libsource (lib Mechanical) (part MountingHole) (description "Mounting Hole without connection"))
      (sheetpath (names /) (tstamps /))
      (tstamp 60C38EE5))
    (comp (ref H2)
      (value MountingHole)
      (footprint MountingHole:MountingHole_3.2mm_M3_ISO7380_Pad_TopBottom)
      (datasheet ~)
      (libsource (lib Mechanical) (part MountingHole) (description "Mounting Hole without connection"))
      (sheetpath (names /) (tstamps /))
      (tstamp 60C39A9D))
    (comp (ref H3)
      (value MountingHole)
      (footprint MountingHole:MountingHole_3.2mm_M3_ISO7380_Pad_TopBottom)
      (datasheet ~)
      (libsource (lib Mechanical) (part MountingHole) (description "Mounting Hole without connection"))
      (sheetpath (names /) (tstamps /))
      (tstamp 60C3D850))
    (comp (ref H4)
      (value MountingHole)
      (footprint MountingHole:MountingHole_3.2mm_M3_ISO7380_Pad_TopBottom)
      (datasheet ~)
      (libsource (lib Mechanical) (part MountingHole) (description "Mounting Hole without connection"))
      (sheetpath (names /) (tstamps /))
      (tstamp 60C3D856))
    (comp (ref J1)
      (value Conn_01x02_Male)
      (footprint Connector:JWT_A3963_1x02_P3.96mm_Vertical)
      (datasheet ~)
      (libsource (lib Connector) (part Conn_01x02_Male) (description "Generic connector, single row, 01x02, script generated (kicad-library-utils/schlib/autogen/connector/)"))
      (sheetpath (names /) (tstamps /))
      (tstamp 60C6F565))
    (comp (ref U2)
      (value DRV5013ADQDBZR)
      (footprint footprints:DRV5013ADQDBZR)
      (libsource (lib 2021-06-03_12-01-14) (part DRV5013ADQDBZR) (description ""))
      (sheetpath (names /) (tstamps /))
      (tstamp 60B90894)))
  (libparts
    (libpart (lib 2021-06-03_12-01-14) (part DRV5013ADQDBZR)
      (footprints
        (fp DBZ0003A_N)
        (fp DBZ0003A_M)
        (fp DBZ0003A_L))
      (fields
        (field (name Reference) U)
        (field (name Value) DRV5013ADQDBZR)
        (field (name Footprint) DBZ0003A_N))
      (pins
        (pin (num 1) (name VCC) (type power_in))
        (pin (num 2) (name OUT) (type openCol))
        (pin (num 3) (name GND) (type power_in))))
    (libpart (lib Connector) (part Conn_01x02_Male)
      (description "Generic connector, single row, 01x02, script generated (kicad-library-utils/schlib/autogen/connector/)")
      (docs ~)
      (footprints
        (fp Connector*:*_1x??_*))
      (fields
        (field (name Reference) J)
        (field (name Value) Conn_01x02_Male))
      (pins
        (pin (num 1) (name Pin_1) (type passive))
        (pin (num 2) (name Pin_2) (type passive))))
    (libpart (lib Device) (part LED)
      (description "Light emitting diode")
      (docs ~)
      (footprints
        (fp LED*)
        (fp LED_SMD:*)
        (fp LED_THT:*))
      (fields
        (field (name Reference) D)
        (field (name Value) LED))
      (pins
        (pin (num 1) (name K) (type passive))
        (pin (num 2) (name A) (type passive))))
    (libpart (lib Device) (part R_Small_US)
      (description "Resistor, small US symbol")
      (docs ~)
      (footprints
        (fp R_*))
      (fields
        (field (name Reference) R)
        (field (name Value) R_Small_US))
      (pins
        (pin (num 1) (name ~) (type passive))
        (pin (num 2) (name ~) (type passive))))
    (libpart (lib Driver_Motor) (part L293)
      (aliases
        (alias L293D))
      (description "Quadruple Half-H Drivers")
      (docs http://www.ti.com/lit/ds/symlink/l293.pdf)
      (footprints
        (fp DIP*W7.62mm*))
      (fields
        (field (name Reference) U)
        (field (name Value) L293)
        (field (name Footprint) Package_DIP:DIP-16_W7.62mm))
      (pins
        (pin (num 1) (name EN1,2) (type input))
        (pin (num 2) (name 1A) (type input))
        (pin (num 3) (name 1Y) (type output))
        (pin (num 4) (name GND) (type power_in))
        (pin (num 5) (name GND) (type power_in))
        (pin (num 6) (name 2Y) (type output))
        (pin (num 7) (name 2A) (type input))
        (pin (num 8) (name VCC2) (type power_in))
        (pin (num 9) (name EN3,4) (type input))
        (pin (num 10) (name 3A) (type input))
        (pin (num 11) (name 3Y) (type output))
        (pin (num 12) (name GND) (type power_in))
        (pin (num 13) (name GND) (type power_in))
        (pin (num 14) (name 4Y) (type output))
        (pin (num 15) (name 4A) (type input))
        (pin (num 16) (name VCC1) (type power_in))))
    (libpart (lib Mechanical) (part MountingHole)
      (description "Mounting Hole without connection")
      (docs ~)
      (footprints
        (fp MountingHole*))
      (fields
        (field (name Reference) H)
        (field (name Value) MountingHole)))
    (libpart (lib Motor) (part Motor_DC)
      (description "DC Motor")
      (docs ~)
      (footprints
        (fp PinHeader*P2.54mm*)
        (fp TerminalBlock*))
      (fields
        (field (name Reference) M)
        (field (name Value) Motor_DC))
      (pins
        (pin (num 1) (name +) (type passive))
        (pin (num 2) (name -) (type passive))))
    (libpart (lib pspice) (part CAP)
      (aliases
        (alias C))
      (description "Capacitor symbol for simulation only")
      (docs ~)
      (fields
        (field (name Reference) C)
        (field (name Value) CAP))
      (pins
        (pin (num 1) (name ~) (type passive))
        (pin (num 2) (name ~) (type passive))))
    (libpart (lib raspberrypi_zerow_uhat-cache) (part Connector_Generic_Conn_02x20_Odd_Even)
      (footprints
        (fp Connector*:*_2x??_*))
      (fields
        (field (name Reference) J)
        (field (name Value) Connector_Generic_Conn_02x20_Odd_Even))
      (pins
        (pin (num 1) (name Pin_1) (type passive))
        (pin (num 2) (name Pin_2) (type passive))
        (pin (num 3) (name Pin_3) (type passive))
        (pin (num 4) (name Pin_4) (type passive))
        (pin (num 5) (name Pin_5) (type passive))
        (pin (num 6) (name Pin_6) (type passive))
        (pin (num 7) (name Pin_7) (type passive))
        (pin (num 8) (name Pin_8) (type passive))
        (pin (num 9) (name Pin_9) (type passive))
        (pin (num 10) (name Pin_10) (type passive))
        (pin (num 11) (name Pin_11) (type passive))
        (pin (num 12) (name Pin_12) (type passive))
        (pin (num 13) (name Pin_13) (type passive))
        (pin (num 14) (name Pin_14) (type passive))
        (pin (num 15) (name Pin_15) (type passive))
        (pin (num 16) (name Pin_16) (type passive))
        (pin (num 17) (name Pin_17) (type passive))
        (pin (num 18) (name Pin_18) (type passive))
        (pin (num 19) (name Pin_19) (type passive))
        (pin (num 20) (name Pin_20) (type passive))
        (pin (num 21) (name Pin_21) (type passive))
        (pin (num 22) (name Pin_22) (type passive))
        (pin (num 23) (name Pin_23) (type passive))
        (pin (num 24) (name Pin_24) (type passive))
        (pin (num 25) (name Pin_25) (type passive))
        (pin (num 26) (name Pin_26) (type passive))
        (pin (num 27) (name Pin_27) (type passive))
        (pin (num 28) (name Pin_28) (type passive))
        (pin (num 29) (name Pin_29) (type passive))
        (pin (num 30) (name Pin_30) (type passive))
        (pin (num 31) (name Pin_31) (type passive))
        (pin (num 32) (name Pin_32) (type passive))
        (pin (num 33) (name Pin_33) (type passive))
        (pin (num 34) (name Pin_34) (type passive))
        (pin (num 35) (name Pin_35) (type passive))
        (pin (num 36) (name Pin_36) (type passive))
        (pin (num 37) (name Pin_37) (type passive))
        (pin (num 38) (name Pin_38) (type passive))
        (pin (num 39) (name Pin_39) (type passive))
        (pin (num 40) (name Pin_40) (type passive)))))
  (libraries
    (library (logical 2021-06-03_12-01-14)
      (uri C:/KiCAD/ul_DRV5013ADQDBZR/KiCAD/2021-06-03_12-01-14/2021-06-03_12-01-14.lib))
    (library (logical Connector)
      (uri "C:\\Program Files\\KiCad\\share\\kicad\\library/Connector.lib"))
    (library (logical Device)
      (uri "C:\\Program Files\\KiCad\\share\\kicad\\library/Device.lib"))
    (library (logical Driver_Motor)
      (uri "C:\\Program Files\\KiCad\\share\\kicad\\library/Driver_Motor.lib"))
    (library (logical Mechanical)
      (uri "C:\\Program Files\\KiCad\\share\\kicad\\library/Mechanical.lib"))
    (library (logical Motor)
      (uri "C:\\Program Files\\KiCad\\share\\kicad\\library/Motor.lib"))
    (library (logical pspice)
      (uri "C:\\Program Files\\KiCad\\share\\kicad\\library/pspice.lib"))
    (library (logical raspberrypi_zerow_uhat-cache)
      (uri C:/KiCAD/kicad-rpiz-uhat-template-master/kicad-rpiz-uhat-template-master/raspberrypi_zerow_uhat/raspberrypi_zerow_uhat-cache.lib)))
  (nets
    (net (code 1) (name "Net-(R3-Pad1)")
      (node (ref R3) (pin 1))
      (node (ref U1) (pin 2)))
    (net (code 2) (name +9V)
      (node (ref U1) (pin 8)))
    (net (code 3) (name "Net-(R2-Pad1)")
      (node (ref R2) (pin 1))
      (node (ref U1) (pin 7)))
    (net (code 4) (name "Net-(D1-Pad1)")
      (node (ref D1) (pin 1))
      (node (ref D2) (pin 2))
      (node (ref R1) (pin 1)))
    (net (code 5) (name +3V3)
      (node (ref J3) (pin 1))
      (node (ref R2) (pin 2))
      (node (ref J3) (pin 17))
      (node (ref R3) (pin 2)))
    (net (code 6) (name "Net-(J3-Pad12)")
      (node (ref J3) (pin 12)))
    (net (code 7) (name "Net-(J3-Pad36)")
      (node (ref J3) (pin 36)))
    (net (code 8) (name "Net-(J3-Pad32)")
      (node (ref J3) (pin 32)))
    (net (code 9) (name "Net-(J3-Pad22)")
      (node (ref J3) (pin 22)))
    (net (code 10) (name "Net-(J3-Pad18)")
      (node (ref J3) (pin 18)))
    (net (code 11) (name "Net-(J3-Pad16)")
      (node (ref J3) (pin 16)))
    (net (code 12) (name "Net-(J3-Pad38)")
      (node (ref J3) (pin 38)))
    (net (code 13) (name "Net-(J3-Pad10)")
      (node (ref J3) (pin 10)))
    (net (code 14) (name "Net-(J3-Pad8)")
      (node (ref J3) (pin 8)))
    (net (code 15) (name "Net-(J3-Pad37)")
      (node (ref J3) (pin 37)))
    (net (code 16) (name "Net-(J3-Pad35)")
      (node (ref J3) (pin 35)))
    (net (code 17) (name "Net-(J3-Pad33)")
      (node (ref J3) (pin 33)))
    (net (code 18) (name "Net-(J3-Pad31)")
      (node (ref J3) (pin 31)))
    (net (code 19) (name "Net-(J3-Pad3)")
      (node (ref J3) (pin 3)))
    (net (code 20) (name "Net-(J3-Pad40)")
      (node (ref J3) (pin 40)))
    (net (code 21) (name Motor_Input_1)
      (node (ref J1) (pin 1))
      (node (ref U1) (pin 3))
      (node (ref U2) (pin 1))
      (node (ref M1) (pin 1)))
    (net (code 22) (name GND)
      (node (ref J3) (pin 13))
      (node (ref J3) (pin 14))
      (node (ref J3) (pin 20))
      (node (ref J3) (pin 25))
      (node (ref C1) (pin 1))
      (node (ref J3) (pin 39))
      (node (ref J3) (pin 6))
      (node (ref J3) (pin 9))
      (node (ref U1) (pin 12))
      (node (ref U1) (pin 13))
      (node (ref J3) (pin 34))
      (node (ref U1) (pin 5))
      (node (ref U1) (pin 4))
      (node (ref J3) (pin 30))
      (node (ref U2) (pin 3))
      (node (ref D2) (pin 1))
      (node (ref D1) (pin 2))
      (node (ref R1) (pin 2)))
    (net (code 23) (name Hall_Effect_Sensor_Output)
      (node (ref J3) (pin 11))
      (node (ref U2) (pin 2)))
    (net (code 24) (name +5V)
      (node (ref J3) (pin 4))
      (node (ref U1) (pin 1))
      (node (ref J3) (pin 2))
      (node (ref C1) (pin 2))
      (node (ref U1) (pin 16)))
    (net (code 25) (name "Net-(U1-Pad14)")
      (node (ref U1) (pin 14)))
    (net (code 26) (name "Net-(U1-Pad11)")
      (node (ref U1) (pin 11)))
    (net (code 27) (name "Net-(U1-Pad10)")
      (node (ref U1) (pin 10)))
    (net (code 28) (name "Net-(J3-Pad28)")
      (node (ref J3) (pin 28)))
    (net (code 29) (name "Net-(J3-Pad27)")
      (node (ref J3) (pin 27)))
    (net (code 30) (name "Net-(J3-Pad26)")
      (node (ref J3) (pin 26)))
    (net (code 31) (name "Net-(J3-Pad24)")
      (node (ref J3) (pin 24)))
    (net (code 32) (name "Net-(J3-Pad23)")
      (node (ref J3) (pin 23)))
    (net (code 33) (name "Net-(J3-Pad21)")
      (node (ref J3) (pin 21)))
    (net (code 34) (name "Net-(U1-Pad15)")
      (node (ref U1) (pin 15)))
    (net (code 35) (name "Net-(J3-Pad19)")
      (node (ref J3) (pin 19)))
    (net (code 36) (name "Net-(J3-Pad15)")
      (node (ref J3) (pin 15)))
    (net (code 38) (name "Net-(U1-Pad9)")
      (node (ref U1) (pin 9)))
    (net (code 39) (name Motor_Input_2)
      (node (ref U1) (pin 6))
      (node (ref J1) (pin 2))
      (node (ref M1) (pin 2)))
    (net (code 40) (name "Net-(J3-Pad29)")
      (node (ref J3) (pin 29)))
    (net (code 41) (name "Net-(J3-Pad7)")
      (node (ref J3) (pin 7)))
    (net (code 42) (name "Net-(J3-Pad5)")
      (node (ref J3) (pin 5)))))
